CMSS12B00634T-099TOPY-099M-0SY-19M-0WGY
CMSS14Y02057T-099TOPM-099Y
CMSS14Y00713S
CMSS14Y00082S
CMSS14Y01741T-099TOPM-099Y
CMSS14Y00402S
CMSS14Y01717T-099TOPM-099Y
CMSS15B01436S-099M-099Y-13M
CMSS14Y00500S
CMSS14Y00080S
CMSS14Y01641T-099TOPM-099Y
CMSS14Y01669T-099TOPM-099Y
CMSS14Y02018T-099TOPM-099Y
CMSS14Y00101S-099Y
CMSS15B01435S-099M-099Y-9M
CMSS14Y00603S-099Y
CMSS11Y00302S-099Y-099M-099NJ-099NJ-28WGY-0B
CMSS14Y02065T-099TOPM-099Y
CMSS14Y00466S
CMSS14Y00372S
CMSS08B00987T-099TOPY-099M-099Y-099B-40WGY-0B
CMSS14Y00114S-099Y
CMSS14Y00164S-099Y
CMSS14Y00497S-099Y
CMSS14Y00205S-099Y
CMSS14Y00722S
CMSS14Y00145S
CMSS14Y01463T-099TOPM-099Y
CMSS14Y00672S
CMSS13B01218T-099TOPY-099M-0SY-6M-0WGY
CMSS14Y00218S-099Y
CMSS14Y00367S
CMSS11Y01152T-099TOPM-099Y-099M-099NJ-099NJ-5WGY-0B
CMSS14Y00160S
CMSS14Y01469T-099TOPM-099Y
CMSS14Y00780S
CMSS14Y00592S-099Y
CMSS14Y00574S-099Y
CMSS14Y00376S
CMSS12Y00720T-099TOPM-099Y-099M-0SY-21M-0WGY
CMSA08WM00143S-050ZTM-050Y-120ZTM-012Y-02B-0RGY
CMSS14Y00339S
CMSS14Y00164S
CMSS14Y01678T-099TOPM-099Y
CMSS14Y00199S
CMSS14Y00297S-099Y
CMSS12B00835T-099TOPY-099M-0SY-38M-0WGY
CMSS15B01464S-099M-099Y-5M
CMSS14Y00680S
CMSS14Y01834T-099TOPM-099Y
CMSS14Y00347S
CMSS14Y00400S
CMSS14Y01744T-099TOPM-099Y
CMSS11B00550S-099M-0SY-36M-0WGY
CMSS14Y01508T-099TOPM-099Y
CMSS14Y01540T-099TOPM-099Y
CMSS14Y01879T-099TOPM-099Y
CMSS14Y00442S
CMSS14Y02030T-099TOPM-099Y
CMSS14Y01605T-099TOPM-099Y
CMSS11Y01173T-099TOPM-099Y-099M-099NJ-099NJ-2RGY-0B
CMSS11Y01036T-099TOPM-099Y-099M-099NJ-099NJ-4WGY-0B
CMSS14Y00140S
CMSS15B01464S-099M-099Y-12M
CMSS14Y00598S-099Y
CMSS14Y00387S
CMSS14Y00051S
CMSS14Y00592S
CMSS14Y00007S
CMSS12Y00716T-099TOPM-099Y-099M-0SY-44M-0WGY
CMSS14Y00015S
CMSS11Y01008T-099TOPM-099Y-099M-0SY-16M-0WGY
CMSS14Y01863T-099TOPM-099Y
CMSS14Y02110T-099TOPM-099Y
CMSS14Y01697T-099TOPM-099Y
CMSS14Y01640T-099TOPM-099Y
CMSS14Y00346S-099Y
CMSS14Y00179S-099Y
CMSS14Y00310S
CMSS11Y00973T-099TOPM-099Y-099M-0SY-29M-0WGY
CMSS14Y01383T-099TOPM-099Y
CMSS14Y00670S
CMSS14Y00785S-099Y
CMSS11B00807T-099TOPY-099M-099NJ-099NJ-42WGY-0B
CMSS14Y00371S
CMSS14Y00597S
CMSS14Y02131T-099TOPM-099Y
CMSS14Y01389T-099TOPM-099Y
CMSS14Y01788T-099TOPM-099Y
CMSS14Y01486T-099TOPM-099Y
CMSS14Y01809T-099TOPM-099Y
CMSS14Y00133S
CMSS14Y00399S-099Y
CMSS14Y00271S-099Y
CMSS12B00304S-099M-0SY-22M-0WGY
CMSS14Y00712S
CMSS14Y01583T-099TOPM-099Y
CMSS14Y01946T-099TOPM-099Y
CMSS14Y01657T-099TOPM-099Y
CMSS14Y02009T-099TOPM-099Y