IR 32
IR 8
Ciherang-Sub1
IR 58
JINMIBYEO
SAMBHA MAHSURI + SUB1
KOGONI 91-1::C1
CICA 8::C1
WAS 207-B-B-3-1-1::C1
CT 6510-24-1-2::C1
WAS 194-B-3-2-5::C1
TOKAMBANY 669::GERVEX 8406-C1
TAICHUNG NATIVE 1
DANAU LAUT TAWAR::C1
PAO TOU HUNG
Swarna-Sub1
IR 42
IR 26
IRRI 102
IR 70
WAS 33-B-B-15-1-4-5::C1
WAS 174-B-3-5::C1
WAS 200-B-B-1-1-1::C1
LOHAMBITRO 224::GERVEX 5144-C1
IR 24
IRBB21
IR 44
IR BB 62
APO::C1
IR65600-81-5-3-2
IRRI 141
IRRI 113
IR 68
IRRI 126
IRRI 112
IRRI 150
IRRI 117
IRRI 156
IR 34
IRRI 146
IRRI 109
IRRI 105
IRBB66
IR 20
IRRI 134
IR 54
IR 38
IR 48
IRRI 108
IRRI 168
IRRI 119
IRRI 163
IRRI 151
IR06M143
IRRI 165
FEDEARROZ50
IRRI 120
IRRI 115
IR 74
IR 72
IR65192-4B-17-3
IRRI 128
IR 22
IRRI 164
IRRI 147
IRRI 122
WAB56-125
IRRI 116
IR 66
IRRI 149
IRRI 118
IR 40
IR 65
IR 50
IRRI 103
IR 62
IR 29
IRRI 157
IRRI 145
IRRI 127
IRRI 123
IR10K152
IRRI 143
IRRI 139
IRRI 136
IRRI 135
IR 30
IRRI 125
IRRI 124
IRRI 106
IR 52
IR 28
IR 56
IR01W105
IRRI 152
IRRI 140
